%YAML 1.1
%TAG !u! tag:unity3d.com,2011:
--- !u!114 &114017946592402658
MonoBehaviour:
  m_ObjectHideFlags: 0
  m_CorrespondingSourceObject: {fileID: 0}
  m_PrefabInstance: {fileID: 0}
  m_PrefabAsset: {fileID: 0}
  m_GameObject: {fileID: 1522970330364787574}
  m_Enabled: 1
  m_EditorHideFlags: 0
  m_Script: {fileID: 11500000, guid: 55432c0b8b0f6754eb672a727aa98ae4, type: 3}
  m_Name: 
  m_EditorClassIdentifier: 
  acceleration: 15
  rb: {fileID: 1022851994629825292}
--- !u!1001 &7889282388336458378
PrefabInstance:
  m_ObjectHideFlags: 0
  serializedVersion: 2
  m_Modification:
    m_TransformParent: {fileID: 0}
    m_Modifications:
    - target: {fileID: 8673635989367816700, guid: eb2f22d24031089479e827ccacd377ab,
        type: 3}
      propertyPath: m_Name
      value: humanFish
      objectReference: {fileID: 0}
    - target: {fileID: 8673635989367816700, guid: eb2f22d24031089479e827ccacd377ab,
        type: 3}
      propertyPath: m_TagString
      value: Untagged
      objectReference: {fileID: 0}
    - target: {fileID: 2722165984406532805, guid: eb2f22d24031089479e827ccacd377ab,
        type: 3}
      propertyPath: m_LocalPosition.x
      value: 55.294315
      objectReference: {fileID: 0}
    - target: {fileID: 2722165984406532805, guid: eb2f22d24031089479e827ccacd377ab,
        type: 3}
      propertyPath: m_LocalPosition.y
      value: 3.6082742
      objectReference: {fileID: 0}
    - target: {fileID: 2722165984406532805, guid: eb2f22d24031089479e827ccacd377ab,
        type: 3}
      propertyPath: m_LocalPosition.z
      value: 106.79746
      objectReference: {fileID: 0}
    - target: {fileID: 2722165984406532805, guid: eb2f22d24031089479e827ccacd377ab,
        type: 3}
      propertyPath: m_LocalRotation.x
      value: 0
      objectReference: {fileID: 0}
    - target: {fileID: 2722165984406532805, guid: eb2f22d24031089479e827ccacd377ab,
        type: 3}
      propertyPath: m_LocalRotation.y
      value: 0
      objectReference: {fileID: 0}
    - target: {fileID: 2722165984406532805, guid: eb2f22d24031089479e827ccacd377ab,
        type: 3}
      propertyPath: m_LocalRotation.z
      value: 0
      objectReference: {fileID: 0}
    - target: {fileID: 2722165984406532805, guid: eb2f22d24031089479e827ccacd377ab,
        type: 3}
      propertyPath: m_LocalRotation.w
      value: 1
      objectReference: {fileID: 0}
    - target: {fileID: 2722165984406532805, guid: eb2f22d24031089479e827ccacd377ab,
        type: 3}
      propertyPath: m_RootOrder
      value: 0
      objectReference: {fileID: 0}
    - target: {fileID: 2722165984406532805, guid: eb2f22d24031089479e827ccacd377ab,
        type: 3}
      propertyPath: m_LocalEulerAnglesHint.x
      value: 0
      objectReference: {fileID: 0}
    - target: {fileID: 2722165984406532805, guid: eb2f22d24031089479e827ccacd377ab,
        type: 3}
      propertyPath: m_LocalEulerAnglesHint.y
      value: 0
      objectReference: {fileID: 0}
    - target: {fileID: 2722165984406532805, guid: eb2f22d24031089479e827ccacd377ab,
        type: 3}
      propertyPath: m_LocalEulerAnglesHint.z
      value: 0
      objectReference: {fileID: 0}
    - target: {fileID: 7155580923793103238, guid: eb2f22d24031089479e827ccacd377ab,
        type: 3}
      propertyPath: m_Drag
      value: 0
      objectReference: {fileID: 0}
    - target: {fileID: 7155580923793103238, guid: eb2f22d24031089479e827ccacd377ab,
        type: 3}
      propertyPath: m_UseGravity
      value: 1
      objectReference: {fileID: 0}
    - target: {fileID: 7155580923793103238, guid: eb2f22d24031089479e827ccacd377ab,
        type: 3}
      propertyPath: m_IsKinematic
      value: 0
      objectReference: {fileID: 0}
    - target: {fileID: 1268509445935873073, guid: eb2f22d24031089479e827ccacd377ab,
        type: 3}
      propertyPath: facade
      value: 
      objectReference: {fileID: 0}
    - target: {fileID: 588535084684674673, guid: eb2f22d24031089479e827ccacd377ab,
        type: 3}
      propertyPath: facade
      value: 
      objectReference: {fileID: 0}
    - target: {fileID: 1643287321015320776, guid: eb2f22d24031089479e827ccacd377ab,
        type: 3}
      propertyPath: elements.Array.data[0]
      value: 
      objectReference: {fileID: 0}
    m_RemovedComponents:
    - {fileID: 114321246204392224, guid: eb2f22d24031089479e827ccacd377ab, type: 3}
    - {fileID: 114606599820703450, guid: eb2f22d24031089479e827ccacd377ab, type: 3}
    - {fileID: 114797968756816438, guid: eb2f22d24031089479e827ccacd377ab, type: 3}
  m_SourcePrefab: {fileID: 100100000, guid: eb2f22d24031089479e827ccacd377ab, type: 3}
--- !u!1 &1522970330364787574 stripped
GameObject:
  m_CorrespondingSourceObject: {fileID: 8673635989367816700, guid: eb2f22d24031089479e827ccacd377ab,
    type: 3}
  m_PrefabInstance: {fileID: 7889282388336458378}
  m_PrefabAsset: {fileID: 0}
--- !u!54 &1022851994629825292 stripped
Rigidbody:
  m_CorrespondingSourceObject: {fileID: 7155580923793103238, guid: eb2f22d24031089479e827ccacd377ab,
    type: 3}
  m_PrefabInstance: {fileID: 7889282388336458378}
  m_PrefabAsset: {fileID: 0}
